{
  "db_name": "PostgreSQL",
  "query": "INSERT INTO \"user_movie\" (user_id, movie_id) \n            SELECT $1, $2\n            WHERE \n              NOT EXISTS (\n                  SELECT user_movie_id FROM \"user_movie\" WHERE user_id = $1 AND movie_id = $2\n              )\n            RETURNING user_movie_id ",
  "describe": {
    "columns": [
      {
        "ordinal": 0,
        "name": "user_movie_id",
        "type_info": "Uuid"
      }
    ],
    "parameters": {
      "Left": [
        "Uuid",
        "Int4"
      ]
    },
    "nullable": [
      false
    ]
  },
  "hash": "93382c63a7abf218f69205e394eb4a7dc659f7cea63cad5087d759a25dc1c2f4"
}
